{
    "appSecret": "f3f0e091a4b4699602ed808ffcf9daca",
    "pageAccessToken": "EAAM2Cj6BiUQBAApb2ZBEMFu1ZBV9G67Clhxbixw0jU3XJ8Q2tolgA4FZAlZAvHRUrL3TERKjX8NuK7dIBnt2ZCyqccfvXBVfydEwQ9h9VPSBuRIdSAuqmqWWZBGGzHkko3zOkH8S6FVknWvZCZBtP3KDEaZAW5vo9TzuSsqirsUgpIQZDZD",
    "validationToken": "bot_logesh_kumar"
}
